GIS and mapping in R
…
<img src="index_files/figure-html/unnamed-chunk-23-1.png" style="display: block; margin: auto;" />

---

# Crop forest to match study area boundaries

```r
forest %>% 
* st_crop(st_bbox(studysites)) %>%
  as_tibble()
```

```
## # A tibble: 2,504 x 4
##    ID       CODE_12 AREA_HA                                             geometry
##    <chr>    <chr>     <dbl>                                       <GEOMETRY [m]>
##  1 FR-1744… 311       2807. MULTIPOLYGON (((479636.9 6235505, 479719.6 6235430,…
##  2 FR-1744… 311       2409. POLYGON ((442252.5 6235505, 442429.7 6235438, 44254…
##  3 FR-1743… 311       2843. MULTIPOLYGON (((396335.1 6235505, 396346.2 6235435,…
##  4 FR-1742… 311        476. POLYGON ((471577.9 6235505, 471467.3 6235289, 47137…
##  5 FR-1742… 311        588. POLYGON ((490987.1 6235505, 491006.8 6235337, 49098…
##  6 FR-1742… 311        354. MULTIPOLYGON (((484715.2 6235505, 484694.9 6235499,…
##  7 FR-1742… 311        579. MULTIPOLYGON (((500091.4 6235505, 500058.3 6235481,…
##  8 FR-1741… 311        357. POLYGON ((509149.7 6235505, 509148.6 6235486, 50933…
##  9 FR-1741… 311       6202. MULTIPOLYGON (((379133.9 6235505, 379132.4 6235483,…
## 10 FR-1741… 311        292. POLYGON ((451256.3 6235505, 451260.6 6235447, 45126…
## # … with 2,494 more rows
```

---

# Then intersect the two layers

```r
forest %>% 
  st_crop(st_bbox(studysites)) %>%
* st_intersection(studysites) %>%
  as_tibble()
```

```
## # A tibble: 2,177 x 9
##    ID        CODE_12 AREA_HA     area  areakm2 bigsites bearpresence idsite
##    <chr>     <chr>     <dbl>    [m^2]   [km^2]    <dbl> <chr>         <dbl>
##  1 FR-173974 311       243.  79618924 79.61892       NA Absence      640101
##  2 FR-173874 311     18041.  79618924 79.61892       NA Absence      640101
##  3 FR-173842 311       289.  79618924 79.61892       NA Absence      640101
##  4 FR-173792 311       235.  79618924 79.61892       NA Absence      640101
##  5 FR-173749 311       153.  79618924 79.61892       NA Absence      640101
##  6 FR-173715 311        83.7 79618924 79.61892       NA Absence      640101
##  7 FR-173687 311        26.9 79618924 79.61892       NA Absence      640101
##  8 FR-173686 311      2697.  79618924 79.61892       NA Absence      640101
##  9 FR-173667 311        49.2 79618924 79.61892       NA Absence      640101
## 10 FR-173664 311        52.6 79618924 79.61892       NA Absence      640101
## # … with 2,167 more rows, and 1 more variable: geometry <GEOMETRY [m]>
```

---

# Get forest area for each intersected `sfg`

```r
forest %>% 
  st_crop(st_bbox(studysites)) %>%
  st_intersection(studysites) %>%
* mutate(area = st_area(.)) %>%
  as_tibble()
```

```
## # A tibble: 2,177 x 9
##    ID        CODE_12 AREA_HA       area  areakm2 bigsites bearpresence idsite
##    <chr>     <chr>     <dbl>      [m^2]   [km^2]    <dbl> <chr>         <dbl>
##  1 FR-173974 311       243.    640945.5 79.61892       NA Absence      640101
##  2 FR-173874 311     18041.   5354968.1 79.61892       NA Absence      640101
##  3 FR-173842 311       289.   2584901.8 79.61892       NA Absence      640101
##  4 FR-173792 311       235.    567599.1 79.61892       NA Absence      640101
##  5 FR-173749 311       153.   1530535.3 79.61892       NA Absence      640101
##  6 FR-173715 311        83.7   837290.0 79.61892       NA Absence      640101
##  7 FR-173687 311        26.9   268517.5 79.61892       NA Absence      640101
##  8 FR-173686 311      2697.  21933124.4 79.61892       NA Absence      640101
##  9 FR-173667 311        49.2   492324.9 79.61892       NA Absence      640101
## 10 FR-173664 311        52.6   526026.9 79.61892       NA Absence      640101
## # … with 2,167 more rows, and 1 more variable: geometry <GEOMETRY [m]>
```
…
```r
forestpyrenees <- forest %>% 
  st_crop(st_bbox(studysites)) %>%
  st_intersection(studysites) %>%
  mutate(area = st_area(.)) %>%
* group_by(idsite) %>% # groups a data frame by variables
* summarise(areaforest = sum(area)) %>% # perform group-wise summaries
  as_tibble() %>%
  select(-geometry)
forestpyrenees
```

```
## # A tibble: 138 x 2
##    idsite areaforest
##     <dbl>      [m^2]
##  1  11403  157762282
##  2  11404   32526319
##  3  90101  137218858
##  4  90102   86944708
##  5  90103   82872880
##  6  90104   42241267
##  7  90201   19224150
##  8  90202   26309123
##  9  90203   31962484
## 10  90301    8958589
## # … with 128 more rows
```
…
---

# Calculate density

```r
df.france <- df.france %>% 
* mutate(density = population/superficie*100)
as_tibble(df.france)
```

```
## # A tibble: 35,798 x 19
##    id_geofla  code_com insee_com nom_com statut x_chf_lieu y_chf_lieu x_centroid
##    <fct>      <fct>    <fct>     <fct>   <fct>       <int>      <int>      <int>
##  1 COMMUNE00… 216      32216     LOURTI… Commu…     500820    6264958     500515
##  2 COMMUNE00… 033      47033     BOUDY-… Commu…     516424    6384852     515575
##  3 COMMUNE00… 009      32009     ARMOUS… Commu…     472979    6278963     473004
##  4 COMMUNE00… 225      38225     AUTRAN… Commu…     898640    6450689     898625
##  5 COMMUNE00… 890      62890     WILLEM… Commu…     640049    7028672     640115
##  6 COMMUNE00… 018      08018     ARDEUI… Commu…     824246    6908952     824391
##  7 COMMUNE00… 113      32113     CRAVEN… Commu…     461332    6300782     460721
##  8 COMMUNE00… 319      10319     RIGNY-… Commu…     746925    6790005     747181
##  9 COMMUNE00… 097      06097     PIERRE… Commu…    1028827    6315717    1027327
## 10 COMMUNE00… 070      42070     CORDEL… Commu…     782215    6538794     782159
## # … with 35,788 more rows, and 11 more variables: y_centroid <int>,
## #   z_moyen <int>, superficie <dbl>, population <dbl>, code_arr <fct>,
## #   code_dept <fct>, nom_dept <fct>, code_reg <fct>, nom_reg <fct>,
## #   geometry <MULTIPOLYGON [m]>, density <dbl>
```
…
# Sum population size over sites

```r
df.pyrenees <- df.france %>% 
  st_transform(crs = st_crs(forest)) %>%
  st_crop(st_bbox(covariates)) %>%
  st_intersection(covariates) %>%
  st_set_geometry(NULL) %>%
* group_by(idsite) %>%
* summarise(humpop = sum(population))
df.pyrenees
```

```
## # A tibble: 138 x 2
##    idsite humpop
##     <dbl>  <dbl>
##  1  11403  10711
##  2  11404   7576
##  3  90101  33154
##  4  90102  17391
##  5  90103  19126
##  6  90104  28000
##  7  90201   8203
##  8  90202   2554
##  9  90203   3505
## 10  90301    285
## # … with 128 more rows
```

---

# Join, then calculate density

```r
covariates <- covariates %>% 
* inner_join(df.pyrenees, by = 'idsite') %>%
  mutate(.before = 1,
*        humdens = humpop / (area/1000000))
as_tibble(covariates)
```

```
## # A tibble: 138 x 10
##     humdens forestcover      area   areakm2 bigsites bearpresence  idsite
##     [1/m^2]       <dbl>     [m^2]    [km^2]    <dbl> <chr>          <dbl>
##  1 15.73746       0.529  79618924  79.61892       NA Absence       640101
##  2 16.38080       0.492 122155210 122.15521       NA Absence       640102
##  3 10.01365       0.416  64012619  64.01262       NA Occasionnelle 640203
##  4 51.83858       0.580  36208552  36.20855       NA Occasionnelle 640204
##  5 30.42510       0.623  67904470  67.90447       NA Absence       640202
##  6 68.13687       0.385  58455872  58.45587       NA Absence       640201
##  7 58.79124       0.460  30310636  30.31064       NA Absence       640301
##  8 70.63129       0.760  25866722  25.86672       NA Absence       640302
##  9 39.78087       0.433  72321198  72.32120       NA Occasionnelle 640401
## 10 12.74387       0.312  67797321  67.79732       NA Reguliere     640402
## # … with 128 more rows, and 3 more variables: areaforest [m^2], humpop <dbl>,
## #   geometry <MULTIPOLYGON [m]>
```
…
---

# Read in data

```r
as_tibble(roads)
```

```
## # A tibble: 339,250 x 13
##    ID_RTE500 VOCATION  NB_CHAUSSE NB_VOIES ETAT  ACCES RES_VERT SENS  RES_EUROPE
##        <int> <chr>     <chr>      <chr>    <chr> <chr> <chr>    <chr> <chr>     
##  1         1 "Liaison… "1 chauss… "1 voie… "Rev… Libre N'appar… Doub… <NA>      
##  2         2 "Liaison… "1 chauss… "1 voie… "Rev… Libre N'appar… Doub… <NA>      
##  3         3 "Liaison… "1 chauss… "1 voie… "Rev… Libre N'appar… Doub… <NA>      
##  4         4 "Liaison… "1 chauss… "1 voie… "Rev… Libre N'appar… Doub… <NA>      
##  5         5 "Liaison… "1 chauss… "1 voie… "Rev… Libre N'appar… Doub… <NA>      
##  6         6 "Liaison… "1 chauss… "1 voie… "Rev… Libre N'appar… Doub… <NA>      
##  7         7 "Liaison… "1 chauss… "2 voie… "Rev… Libre N'appar… Sens… <NA>      
##  8         8 "Liaison… "1 chauss… "1 voie… "Rev… Libre N'appar… Doub… <NA>      
##  9         9 "Liaison… "1 chauss… "1 voie… "Rev… Libre N'appar… Doub… <NA>      
## 10        10 "Liaison… "1 chauss… "1 voie… "Rev… Libre N'appar… Doub… <NA>      
## # … with 339,240 more rows, and 4 more variables: NUM_ROUTE <chr>,
## #   CLASS_ADM <chr>, LONGUEUR <dbl>, geometry <LINESTRING [m]>
```

---

# Focus on highways

```r
highways <- roads %>%
* filter(CLASS_ADM == "Autoroute")
as_tibble(highways)
```

```
## # A tibble: 4,506 x 13
##    ID_RTE500 VOCATION  NB_CHAUSSE NB_VOIES ETAT  ACCES RES_VERT SENS  RES_EUROPE
##        <int> <chr>     <chr>      <chr>    <chr> <chr> <chr>    <chr> <chr>     
##  1        32 Type aut… "2 chauss… "Sans o… "Rev… "A p… Apparti… Doub… <NA>      
##  2        33 Type aut… "1 chauss… "2 voie… "Rev… "A p… Apparti… Doub… <NA>      
##  3      1041 Type aut… "1 chauss… "1 voie… "Rev… "Lib… Apparti… Sens… <NA>      
##  4      2460 Type aut… "2 chauss… "Sans o… "Rev… "Lib… N'appar… Doub… E60       
##  5      3074 Type aut… "1 chauss… "1 voie… "Rev… "Lib… N'appar… Sens… <NA>      
##  6      3198 Type aut… "1 chauss… "1 voie… "Rev… "A p… Apparti… Sens… E712      
##  7      3200 Type aut… "2 chauss… "Sans o… "Rev… "Lib… Apparti… Doub… <NA>      
##  8      3201 Type aut… "2 chauss… "Sans o… "Rev… "Lib… Apparti… Doub… <NA>      
##  9      3202 Type aut… "2 chauss… "Sans o… "Rev… "Lib… Apparti… Doub… <NA>      
## 10      3363 Type aut… "2 chauss… "Sans o… "Rev… "A p… Apparti… Doub… E713      
## # … with 4,496 more rows, and 4 more variables: NUM_ROUTE <chr>,
## #   CLASS_ADM <chr>, LONGUEUR <dbl>, geometry <LINESTRING [m]>
```

---

# Reproject and crop to match France extent

```r
highways <- highways %>% 
* st_transform(crs = st_crs(forest)) %>%
* st_crop(st_bbox(df.france))
as_tibble(highways)
```

```
## # A tibble: 4,494 x 13
##    ID_RTE500 VOCATION  NB_CHAUSSE NB_VOIES ETAT  ACCES RES_VERT SENS  RES_EUROPE
##        <int> <chr>     <chr>      <chr>    <chr> <chr> <chr>    <chr> <chr>     
##  1        32 Type aut… "2 chauss… "Sans o… "Rev… "A p… Apparti… Doub… <NA>      
##  2        33 Type aut… "1 chauss… "2 voie… "Rev… "A p… Apparti… Doub… <NA>      
##  3      1041 Type aut… "1 chauss… "1 voie… "Rev… "Lib… Apparti… Sens… <NA>      
##  4      2460 Type aut… "2 chauss… "Sans o… "Rev… "Lib… N'appar… Doub… E60       
##  5      3074 Type aut… "1 chauss… "1 voie… "Rev… "Lib… N'appar… Sens… <NA>      
##  6      3198 Type aut… "1 chauss… "1 voie… "Rev… "A p… Apparti… Sens… E712      
##  7      3200 Type aut… "2 chauss… "Sans o… "Rev… "Lib… Apparti… Doub… <NA>      
##  8      3201 Type aut… "2 chauss… "Sans o… "Rev… "Lib… Apparti… Doub… <NA>      
##  9      3202 Type aut… "2 chauss… "Sans o… "Rev… "Lib… Apparti… Doub… <NA>      
## 10      3363 Type aut… "2 chauss… "Sans o… "Rev… "A p… Apparti… Doub… E713      
## # … with 4,484 more rows, and 4 more variables: NUM_ROUTE <chr>,
## #   CLASS_ADM <chr>, LONGUEUR <dbl>, geometry <LINESTRING [m]>
```

---

# Get centroids of each monitoring sites

```r
centroids <- covariates %>% 
* st_centroid()
as_tibble(centroids)
```

```
## # A tibble: 138 x 10
##     humdens forestcover      area   areakm2 bigsites bearpresence  idsite
##     [1/m^2]       <dbl>     [m^2]    [km^2]    <dbl> <chr>          <dbl>
##  1 15.73746       0.529  79618924  79.61892       NA Absence       640101
##  2 16.38080       0.492 122155210 122.15521       NA Absence       640102
##  3 10.01365       0.416  64012619  64.01262       NA Occasionnelle 640203
##  4 51.83858       0.580  36208552  36.20855       NA Occasionnelle 640204
##  5 30.42510       0.623  67904470  67.90447       NA Absence       640202
##  6 68.13687       0.385  58455872  58.45587       NA Absence       640201
##  7 58.79124       0.460  30310636  30.31064       NA Absence       640301
##  8 70.63129       0.760  25866722  25.86672       NA Absence       640302
##  9 39.78087       0.433  72321198  72.32120       NA Occasionnelle 640401
## 10 12.74387       0.312  67797321  67.79732       NA Reguliere     640402
## # … with 128 more rows, and 3 more variables: areaforest [m^2], humpop <dbl>,
## #   geometry <POINT [m]>
```
…
