GIS and mapping in R
…
<img src="sf_ogimenez_files/figure-html/unnamed-chunk-21-1.png" style="display: block; margin: auto;" />

---

# Crop forest to match study area boundaries

```r
forest %>% 
* st_crop(st_bbox(studysites)) %>%
  as_tibble()
```

```
## # A tibble: 2,504 x 4
##    ID      CODE_12 AREA_HA                                         geometry
##    <fct>   <fct>     <dbl>                                   <GEOMETRY [m]>
##  1 FR-174… 311       2807. MULTIPOLYGON (((479636.9 6235505, 479719.6 6235…
##  2 FR-174… 311       2409. POLYGON ((442252.5 6235505, 442429.7 6235438, 4…
##  3 FR-174… 311       2843. MULTIPOLYGON (((396335.1 6235505, 396346.2 6235…
##  4 FR-174… 311        476. POLYGON ((471577.9 6235505, 471467.3 6235289, 4…
##  5 FR-174… 311        588. POLYGON ((490987.1 6235505, 491006.8 6235337, 4…
##  6 FR-174… 311        354. MULTIPOLYGON (((484715.2 6235505, 484694.9 6235…
##  7 FR-174… 311        579. MULTIPOLYGON (((500091.4 6235505, 500058.3 6235…
##  8 FR-174… 311        357. POLYGON ((509149.7 6235505, 509148.6 6235486, 5…
##  9 FR-174… 311       6202. MULTIPOLYGON (((379133.9 6235505, 379132.4 6235…
## 10 FR-174… 311        292. POLYGON ((451256.3 6235505, 451260.6 6235447, 4…
## # … with 2,494 more rows
```

---

# Then intersect the two layers

```r
forest %>% 
  st_crop(st_bbox(studysites)) %>%
* st_intersection(studysites) %>%
  as_tibble()
```

```
## # A tibble: 2,177 x 9
##    ID    CODE_12 AREA_HA bearpresence idsite area  areakm2 bigsites
##    <fct> <fct>     <dbl> <fct>         <dbl> <S3:> <S3: u>    <dbl>
##  1 FR-1… 311       243.  Absence      640101 7961… 79.618…       NA
##  2 FR-1… 311     18041.  Absence      640101 7961… 79.618…       NA
##  3 FR-1… 311       289.  Absence      640101 7961… 79.618…       NA
##  4 FR-1… 311       235.  Absence      640101 7961… 79.618…       NA
##  5 FR-1… 311       153.  Absence      640101 7961… 79.618…       NA
##  6 FR-1… 311        83.7 Absence      640101 7961… 79.618…       NA
##  7 FR-1… 311        26.9 Absence      640101 7961… 79.618…       NA
##  8 FR-1… 311      2697.  Absence      640101 7961… 79.618…       NA
##  9 FR-1… 311        49.2 Absence      640101 7961… 79.618…       NA
## 10 FR-1… 311        52.6 Absence      640101 7961… 79.618…       NA
## # … with 2,167 more rows, and 1 more variable: geometry <GEOMETRY [m]>
```

---

# Get forest area for each intersected `sfg`

```r
forest %>% 
  st_crop(st_bbox(studysites)) %>%
  st_intersection(studysites) %>%
* mutate(area = st_area(.)) %>%
  as_tibble()
```

```
## # A tibble: 2,177 x 9
##    ID    CODE_12 AREA_HA bearpresence idsite area  areakm2 bigsites
##    <fct> <fct>     <dbl> <fct>         <dbl> <S3:> <S3: u>    <dbl>
##  1 FR-1… 311       243.  Absence      640101   64… 79.618…       NA
##  2 FR-1… 311     18041.  Absence      640101  535… 79.618…       NA
##  3 FR-1… 311       289.  Absence      640101  258… 79.618…       NA
##  4 FR-1… 311       235.  Absence      640101   56… 79.618…       NA
##  5 FR-1… 311       153.  Absence      640101  153… 79.618…       NA
##  6 FR-1… 311        83.7 Absence      640101   83… 79.618…       NA
##  7 FR-1… 311        26.9 Absence      640101   26… 79.618…       NA
##  8 FR-1… 311      2697.  Absence      640101 2193… 79.618…       NA
##  9 FR-1… 311        49.2 Absence      640101   49… 79.618…       NA
## 10 FR-1… 311        52.6 Absence      640101   52… 79.618…       NA
## # … with 2,167 more rows, and 1 more variable: geometry <GEOMETRY [m]>
```
…
# Sum forest over all study sites

```r
forestpyrenees <- forest %>% 
  st_crop(st_bbox(studysites)) %>%
  st_intersection(studysites) %>%
  mutate(area = st_area(.)) %>%
* group_by(idsite) %>% # groups a data frame by variables
* summarise(areaforest = sum(area)) %>%  # perform group-wise summaries
  as_tibble()
forestpyrenees
```

```
## # A tibble: 138 x 3
##    idsite areaforest                                               geometry
##     <dbl> <S3: units>                                    <MULTIPOLYGON [m]>
##  1  11403 157762282 [m… (((676592.7 6193371, 676678 6193451, 676728.8 6193…
##  2  11404  32526319 [m… (((686188.6 6212091, 686132.8 6212085, 686099.4 62…
##  3  90101 137218858 [m… (((549792.8 6212012, 549802.4 6212008, 549801.6 62…
##  4  90102  86944708 [m… (((549802.4 6212008, 549804.2 6212008, 549801.6 62…
##  5  90103  82872880 [m… (((586882.2 6211909, 586901.2 6211962, 586919.6 62…
##  6  90104  42241267 [m… (((584856.5 6214670, 584865.8 6214672, 584878.2 62…
##  7  90201  19224150 [m… (((549791 6208948, 549789 6208964, 549781.2 620902…
##  8  90202  26309123 [m… (((544687.7 6199316, 544645.8 6199341, 544646.3 61…
##  9  90203  31962484 [m… (((547362.3 6196592, 547543.3 6196596, 547873.8 61…
## 10  90301   8958589 [m… (((530897.2 6192630, 531030.1 6192728, 531088.9 61…
## # … with 128 more rows
```

---

# Join `sf` and `tibble` objects

```r
studysites %>% 
* inner_join(forestpyrenees, by = 'idsite') %>%
  as.tibble()
```

```
## # A tibble: 138 x 9
##    bearpresence idsite area  areakm2 bigsites areaforest
##    <fct>         <dbl> <S3:> <S3: u>    <dbl> <S3: unit>
##  1 Absence      640101  796…  79.61…       NA 42105194 …
##  2 Absence      640102 1221… 122.15…       NA 60136750 …
##  3 Occasionnel… 640203  640…  64.01…       NA 26652318 …
##  4 Occasionnel… 640204  362…  36.20…       NA 21003797 …
##  5 Absence      640202  679…  67.90…       NA 42325894 …
##  6 Absence      640201  584…  58.45…       NA 22478565 …
##  7 Absence      640301  303…  30.31…       NA 13955020 …
##  8 Absence      640302  258…  25.86…       NA 19648844 …
##  9 Occasionnel… 640401  723…  72.32…       NA 31347244 …
## 10 Reguliere    640402  677…  67.79…       NA 21175525 …
## # … with 128 more rows, and 3 more variables: geometry.x <MULTIPOLYGON
## #   [m]>, geometry.y <MULTIPOLYGON [m]>, geometry <GEOMETRYCOLLECTION>
```

---

# Calculate forest cover

```r
covariates <- studysites %>% 
* inner_join(forestpyrenees, by = 'idsite') %>%
  mutate(forestcover = areaforest / area)
as.tibble(covariates)
```

```
## # A tibble: 138 x 10
##    bearpresence idsite area  areakm2 bigsites areaforest forestcover
##    <fct>         <dbl> <S3:> <S3: u>    <dbl> <S3: unit> <S3: units>
##  1 Absence      640101  796…  79.61…       NA 42105194 … 0.5288340 …
##  2 Absence      640102 1221… 122.15…       NA 60136750 … 0.4922979 …
##  3 Occasionnel… 640203  640…  64.01…       NA 26652318 … 0.4163604 …
##  4 Occasionnel… 640204  362…  36.20…       NA 21003797 … 0.5800784 …
##  5 Absence      640202  679…  67.90…       NA 42325894 … 0.6233153 …
##  6 Absence      640201  584…  58.45…       NA 22478565 … 0.3845390 …
##  7 Absence      640301  303…  30.31…       NA 13955020 … 0.4604001 …
##  8 Absence      640302  258…  25.86…       NA 19648844 … 0.7596186 …
##  9 Occasionnel… 640401  723…  72.32…       NA 31347244 … 0.4334448 …
## 10 Reguliere    640402  677…  67.79…       NA 21175525 … 0.3123357 …
## # … with 128 more rows, and 3 more variables: geometry.x <MULTIPOLYGON
## #   [m]>, geometry.y <MULTIPOLYGON [m]>, geometry <GEOMETRYCOLLECTION>
```
…
---

# Calculate density

```r
df.france <- df.france %>% 
  mutate(density = population/superficie*100)
as.tibble(df.france)
```

```
## # A tibble: 35,798 x 19
##    id_geofla code_com insee_com nom_com statut x_chf_lieu y_chf_lieu
##    <fct>     <fct>    <fct>     <fct>   <fct>       <int>      <int>
##  1 COMMUNE0… 216      32216     LOURTI… Commu…     500820    6264958
##  2 COMMUNE0… 033      47033     BOUDY-… Commu…     516424    6384852
##  3 COMMUNE0… 009      32009     ARMOUS… Commu…     472979    6278963
##  4 COMMUNE0… 225      38225     AUTRAN… Commu…     898640    6450689
##  5 COMMUNE0… 890      62890     WILLEM… Commu…     640049    7028672
##  6 COMMUNE0… 018      08018     ARDEUI… Commu…     824246    6908952
##  7 COMMUNE0… 113      32113     CRAVEN… Commu…     461332    6300782
##  8 COMMUNE0… 319      10319     RIGNY-… Commu…     746925    6790005
##  9 COMMUNE0… 097      06097     PIERRE… Commu…    1028827    6315717
## 10 COMMUNE0… 070      42070     CORDEL… Commu…     782215    6538794
## # … with 35,788 more rows, and 12 more variables: x_centroid <int>,
## #   y_centroid <int>, z_moyen <int>, superficie <dbl>, population <dbl>,
## #   code_arr <fct>, code_dept <fct>, nom_dept <fct>, code_reg <fct>,
## #   nom_reg <fct>, density <dbl>, geometry <MULTIPOLYGON [m]>
```
…
# Sum population size over sites

```r
df.pyrenees <- df.france %>% 
  st_transform(crs = st_crs(forest)) %>%
  st_crop(st_bbox(covariates)) %>%
  st_intersection(covariates) %>%
  group_by(idsite) %>%
  summarise(humpop = sum(population)) %>%
  as_tibble()
df.pyrenees
```

```
## # A tibble: 138 x 3
##    idsite humpop                                                   geometry
##     <dbl>  <dbl>                                             <GEOMETRY [m]>
##  1  11403  10711 POLYGON ((686826.1 6201517, 686569.5 6201391, 686384.7 62…
##  2  11404   7576 POLYGON ((686245.1 6212172, 686121.8 6211996, 685755 6211…
##  3  90101  33154 POLYGON ((541430.8 6217206, 541320 6217162, 541205.9 6217…
##  4  90102  17391 POLYGON ((551994.2 6217942, 551943.8 6217955, 551856.6 62…
##  5  90103  19126 MULTIPOLYGON (((559357.6 6211513, 559174.4 6211530, 55915…
##  6  90104  28000 POLYGON ((586455.6 6214769, 586476.5 6214741, 586664.2 62…
##  7  90201   8203 POLYGON ((549096.2 6203616, 549051.8 6203591, 549032.7 62…
##  8  90202   2554 POLYGON ((546852.7 6204385, 546961.9 6204404, 546853.6 62…
##  9  90203   3505 MULTIPOLYGON (((545041.7 6197354, 545031.8 6197359, 54504…
## 10  90301    285 POLYGON ((533167.3 6195384, 533210.4 6195336, 533210.1 61…
## # … with 128 more rows
```

---

# Join, then calculate density

```r
covariates <- covariates %>% 
  inner_join(df.pyrenees,by='idsite') %>%
  mutate(humdens = humpop / (area/1000000))
as.tibble(covariates)
```

```
## # A tibble: 138 x 13
##    bearpresence idsite area  areakm2 bigsites areaforest forestcover humpop
##    <fct>         <dbl> <S3:> <S3: u>    <dbl> <S3: unit> <S3: units>  <dbl>
##  1 Absence      640101  796…  79.61…       NA 42105194 … 0.5288340 …   1253
##  2 Absence      640102 1221… 122.15…       NA 60136750 … 0.4922979 …   2001
##  3 Occasionnel… 640203  640…  64.01…       NA 26652318 … 0.4163604 …    641
##  4 Occasionnel… 640204  362…  36.20…       NA 21003797 … 0.5800784 …   1877
##  5 Absence      640202  679…  67.90…       NA 42325894 … 0.6233153 …   2066
##  6 Absence      640201  584…  58.45…       NA 22478565 … 0.3845390 …   3983
##  7 Absence      640301  303…  30.31…       NA 13955020 … 0.4604001 …   1782
##  8 Absence      640302  258…  25.86…       NA 19648844 … 0.7596186 …   1827
##  9 Occasionnel… 640401  723…  72.32…       NA 31347244 … 0.4334448 …   2877
## 10 Reguliere    640402  677…  67.79…       NA 21175525 … 0.3123357 …    864
## # … with 128 more rows, and 5 more variables: humdens <S3: units>,
## #   geometry.x <MULTIPOLYGON [m]>, geometry.y <MULTIPOLYGON [m]>,
## #   geometry.x.x <GEOMETRYCOLLECTION>, geometry.y.y <GEOMETRY [m]>
```
…
---

# Read in data

```r
as.tibble(roads)
```

```
## # A tibble: 339,250 x 13
##    ID_RTE500 VOCATION NB_CHAUSSE NB_VOIES ETAT  ACCES RES_VERT SENS 
##        <int> <fct>    <fct>      <fct>    <fct> <fct> <fct>    <fct>
##  1         1 Liaison… "1 chauss… "1 voie… "Rev… Libre N'appar… Doub…
##  2         2 Liaison… "1 chauss… "1 voie… "Rev… Libre N'appar… Doub…
##  3         3 Liaison… "1 chauss… "1 voie… "Rev… Libre N'appar… Doub…
##  4         4 Liaison… "1 chauss… "1 voie… "Rev… Libre N'appar… Doub…
##  5         5 Liaison… "1 chauss… "1 voie… "Rev… Libre N'appar… Doub…
##  6         6 Liaison… "1 chauss… "1 voie… "Rev… Libre N'appar… Doub…
##  7         7 "Liaiso… "1 chauss… 2 voies… "Rev… Libre N'appar… Sens…
##  8         8 "Liaiso… "1 chauss… "1 voie… "Rev… Libre N'appar… Doub…
##  9         9 "Liaiso… "1 chauss… "1 voie… "Rev… Libre N'appar… Doub…
## 10        10 "Liaiso… "1 chauss… "1 voie… "Rev… Libre N'appar… Doub…
## # … with 339,240 more rows, and 5 more variables: RES_EUROPE <fct>,
## #   NUM_ROUTE <fct>, CLASS_ADM <fct>, LONGUEUR <dbl>, geometry <LINESTRING
## #   [m]>
```

---

# Focus on highways

```r
highways <- roads %>%
  filter(CLASS_ADM == "Autoroute")
as.tibble(highways)
```

```
## # A tibble: 4,506 x 13
##    ID_RTE500 VOCATION NB_CHAUSSE NB_VOIES ETAT  ACCES RES_VERT SENS 
##        <int> <fct>    <fct>      <fct>    <fct> <fct> <fct>    <fct>
##  1        32 Type au… "2 chauss… Sans ob… "Rev… "A p… Apparti… Doub…
##  2        33 Type au… "1 chauss… 2 voies… "Rev… "A p… Apparti… Doub…
##  3      1041 Type au… "1 chauss… "1 voie… "Rev… Libre Apparti… Sens…
##  4      2460 Type au… "2 chauss… Sans ob… "Rev… Libre N'appar… Doub…
##  5      3074 Type au… "1 chauss… "1 voie… "Rev… Libre N'appar… Sens…
##  6      3198 Type au… "1 chauss… "1 voie… "Rev… "A p… Apparti… Sens…
##  7      3200 Type au… "2 chauss… Sans ob… "Rev… Libre Apparti… Doub…
##  8      3201 Type au… "2 chauss… Sans ob… "Rev… Libre Apparti… Doub…
##  9      3202 Type au… "2 chauss… Sans ob… "Rev… Libre Apparti… Doub…
## 10      3363 Type au… "2 chauss… Sans ob… "Rev… "A p… Apparti… Doub…
## # … with 4,496 more rows, and 5 more variables: RES_EUROPE <fct>,
## #   NUM_ROUTE <fct>, CLASS_ADM <fct>, LONGUEUR <dbl>, geometry <LINESTRING
## #   [m]>
```

---

# Reproject and crop to match France extent

```r
highways <- highways %>% 
  st_transform(crs = st_crs(forest)) %>%
  st_crop(st_bbox(df.france))
as.tibble(highways)
```

```
## # A tibble: 4,494 x 13
##    ID_RTE500 VOCATION NB_CHAUSSE NB_VOIES ETAT  ACCES RES_VERT SENS 
##        <int> <fct>    <fct>      <fct>    <fct> <fct> <fct>    <fct>
##  1        32 Type au… "2 chauss… Sans ob… "Rev… "A p… Apparti… Doub…
##  2        33 Type au… "1 chauss… 2 voies… "Rev… "A p… Apparti… Doub…
##  3      1041 Type au… "1 chauss… "1 voie… "Rev… Libre Apparti… Sens…
##  4      2460 Type au… "2 chauss… Sans ob… "Rev… Libre N'appar… Doub…
##  5      3074 Type au… "1 chauss… "1 voie… "Rev… Libre N'appar… Sens…
##  6      3198 Type au… "1 chauss… "1 voie… "Rev… "A p… Apparti… Sens…
##  7      3200 Type au… "2 chauss… Sans ob… "Rev… Libre Apparti… Doub…
##  8      3201 Type au… "2 chauss… Sans ob… "Rev… Libre Apparti… Doub…
##  9      3202 Type au… "2 chauss… Sans ob… "Rev… Libre Apparti… Doub…
## 10      3363 Type au… "2 chauss… Sans ob… "Rev… "A p… Apparti… Doub…
## # … with 4,484 more rows, and 5 more variables: RES_EUROPE <fct>,
## #   NUM_ROUTE <fct>, CLASS_ADM <fct>, LONGUEUR <dbl>, geometry <LINESTRING
## #   [m]>
```

---

# Get centroids of each monitoring sites

```r
centroids <- covariates %>% 
  st_centroid()
as.tibble(centroids)
```

```
## # A tibble: 138 x 13
##    bearpresence idsite area  areakm2 bigsites areaforest forestcover humpop
##    <fct>         <dbl> <S3:> <S3: u>    <dbl> <S3: unit> <S3: units>  <dbl>
##  1 Absence      640101  796…  79.61…       NA 42105194 … 0.5288340 …   1253
##  2 Absence      640102 1221… 122.15…       NA 60136750 … 0.4922979 …   2001
##  3 Occasionnel… 640203  640…  64.01…       NA 26652318 … 0.4163604 …    641
##  4 Occasionnel… 640204  362…  36.20…       NA 21003797 … 0.5800784 …   1877
##  5 Absence      640202  679…  67.90…       NA 42325894 … 0.6233153 …   2066
##  6 Absence      640201  584…  58.45…       NA 22478565 … 0.3845390 …   3983
##  7 Absence      640301  303…  30.31…       NA 13955020 … 0.4604001 …   1782
##  8 Absence      640302  258…  25.86…       NA 19648844 … 0.7596186 …   1827
##  9 Occasionnel… 640401  723…  72.32…       NA 31347244 … 0.4334448 …   2877
## 10 Reguliere    640402  677…  67.79…       NA 21175525 … 0.3123357 …    864
## # … with 128 more rows, and 5 more variables: humdens <S3: units>,
## #   geometry.x <POINT [m]>, geometry.y <MULTIPOLYGON [m]>,
## #   geometry.x.x <GEOMETRYCOLLECTION>, geometry.y.y <GEOMETRY [m]>
```
…
